<svg id="icons" xmlns="http://www.w3.org/2000/svg" xmlns:xlink="http://www.w3.org/1999/xlink" viewBox="0 0 28.22 28.51">
  <defs>
    <style>
      .cls-1, .cls-3, .cls-4, .cls-5, .cls-6 {
        fill: none;
        stroke: #fcfdfc;
        stroke-miterlimit: 10;
      }

      .cls-2 {
        opacity: 0.3;
      }

      .cls-3, .cls-4, .cls-5, .cls-6 {
        stroke-width: 0.25px;
      }

      .cls-4 {
        stroke-dasharray: 3.77 3.77;
      }

      .cls-5 {
        stroke-dasharray: 4.68 4.68;
      }

      .cls-6 {
        stroke-dasharray: 4.48 4.48;
      }
    </style>
    <symbol id="Save_to_Pocket" data-name="Save to Pocket" viewBox="0 0 28.22 28.51">
      <g>
        <polygon class="cls-1" points="0.5 6.7 0.5 25.27 10.98 27.99 21.5 25.27 21.5 6.7 0.5 6.7"/>
        <g class="cls-2">
          <g>
            <polyline class="cls-3" points="4.28 8 1.78 8 1.78 10.5"/>
            <line class="cls-4" x1="1.78" y1="14.27" x2="1.78" y2="19.93"/>
            <polyline class="cls-3" points="1.78 21.81 1.78 24.31 4.2 24.94"/>
            <polyline class="cls-5" points="8.73 26.11 10.98 26.7 15.53 25.52"/>
            <polyline class="cls-3" points="17.8 24.94 20.22 24.31 20.22 21.81"/>
            <line class="cls-4" x1="20.22" y1="18.04" x2="20.22" y2="12.39"/>
            <polyline class="cls-3" points="20.22 10.5 20.22 8 17.72 8"/>
            <line class="cls-6" x1="13.24" y1="8" x2="6.52" y2="8"/>
          </g>
        </g>
        <path class="cls-1" d="M21.5,12.33A9.93,9.93,0,0,0,11,17.77,9.94,9.94,0,0,0,.5,12.21V6.7h21v5.62Z"/>
      </g>
      <g>
        <line class="cls-1" x1="24.22" x2="24.22" y2="8"/>
        <line class="cls-1" x1="28.22" y1="4" x2="20.22" y2="4"/>
      </g>
    </symbol>
  </defs>
  <title>addtopocket</title>
  <use id="Save_to_Pocket-3" data-name="Save to Pocket" width="28.22" height="28.51" xlink:href="#Save_to_Pocket"/>
</svg>
