<?xml version="1.0" encoding="utf-8"?>
<!-- Generator: Adobe Illustrator 19.2.1, SVG Export Plug-In . SVG Version: 6.00 Build 0)  -->
<svg version="1.1" id="Layer_2" xmlns="http://www.w3.org/2000/svg" xmlns:xlink="http://www.w3.org/1999/xlink" x="0px" y="0px"
	 viewBox="0 0 120.2 120.4" style="enable-background:new 0 0 120.2 120.4;" xml:space="preserve">
<style type="text/css">
	.st0{fill:#4A4A56;}
</style>
<title>pocketbarn-icon</title>
<g>
	<path class="st0" d="M0.7,0v20.2C40.2,17,57.1,36.8,60.1,40.8c19.7-24.6,57.7-20.4,59.4-20.1V0H0.7z"/>
	<path class="st0" d="M60.6,42.2L60,42.8l-0.5-0.7c-0.1-0.2-15.9-24.2-58.8-20.7l0-0.6V105l43.8,11.4V71c0-12.3,10-22.2,22.2-22.2
		C79,48.8,89,58.8,89,71c0,11.1-6.1,22.7-18.5,22.7c-3.1,0-5.7-2.1-5.7-5.4c0-2.8,2.3-5,5.1-5c3.3,0,5,2.6,5,5.6
		C82.2,86.5,85,78.1,85,71c0.2-10-7.7-18.4-17.8-18.6s-18.4,7.7-18.6,17.8c0,0.3,0,0.6,0,0.9v46.4l11.4,3l59.5-15.4V21.2l-0.1,0.6
		C119,21.8,80,16.9,60.6,42.2z"/>
</g>
</svg>
